%YAML 1.1
%TAG !u! tag:unity3d.com,2011:
--- !u!1045 &1
EditorBuildSettings:
  m_ObjectHideFlags: 0
  serializedVersion: 2
  m_Scenes:
  - enabled: 1
    path: Assets/Scenes/DriverScene.unity
    guid: 5da43c015096dd649b2aec9544d8cab0
  m_configObjects:
    Unity.XR.WindowsMR.Settings: {fileID: 11400000, guid: 744b813df90924c169af73489b8325de,
      type: 2}
    UnityEditor.XR.ARCore.ARCoreSettings: {fileID: 11400000, guid: b29dc5864f774e54dadc09ffbc50874f,
      type: 2}
    UnityEditor.XR.ARKit.ARKitSettings: {fileID: 11400000, guid: 4d2854127ae29ad4cb2b0c930813b15b,
      type: 2}
    com.unity.xr.arcore.PlayerSettings: {fileID: 11400000, guid: e43a6e55167c57b4997b6af10960afa4,
      type: 2}
    com.unity.xr.arkit.PlayerSettings: {fileID: 11400000, guid: b27ec7d82a91a48e69fd689ad6808e5e,
      type: 2}
    com.unity.xr.magicleap.magic_leap_settings: {fileID: 11400000, guid: 1eb95d77acb39444e8cf44313496a874,
      type: 2}
    com.unity.xr.management.loader_settings: {fileID: 11400000, guid: 58f40b12bbc864f3c96c6505a9a1e1e3,
      type: 2}
